ArithmeticLogicUnit/signals_output/signals.vcd
$date
	Mon Dec 11 16:22:45 2023
$end
$version
	Icarus Verilog
$end
$timescale
	1ps
$end
$scope module testbench $end
$var wire 4 ! synthesis_test_status [3:0] $end
$var wire 4 " synthesis_test_result [3:0] $end
$var wire 4 # simulation_test_status [3:0] $end
$var wire 4 $ simulation_test_result [3:0] $end
$var reg 4 % test_arg_A [3:0] $end
$var reg 4 & test_arg_B [3:0] $end
$var reg 1 ' test_clk $end
$var reg 2 ( test_op [1:0] $end
$var reg 1 ) test_reset $end
$scope module alu_model_simulation $end
$var wire 4 * i_arg_A [3:0] $end
$var wire 4 + i_arg_B [3:0] $end
$var wire 1 ' i_clk $end
$var wire 2 , i_op [1:0] $end
$var wire 1 ) i_reset $end
$var reg 4 - comp_A [3:0] $end
$var reg 4 . comp_B [3:0] $end
$var reg 4 / o_result [3:0] $end
$var reg 4 0 o_status [3:0] $end
$var reg 5 1 overflow_check [4:0] $end
$var reg 4 2 s_A [3:0] $end
$var reg 4 3 s_B [3:0] $end
$var reg 4 4 sum [3:0] $end
$var reg 4 5 temp_B [3:0] $end
$var reg 4 6 temp_result [3:0] $end
$var reg 4 7 temp_status [3:0] $end
$upscope $end
$scope module alu_model_synthesis $end
$var wire 1 8 _000_ $end
$var wire 1 9 _001_ $end
$var wire 1 : _002_ $end
$var wire 1 ; _003_ $end
$var wire 1 < _004_ $end
$var wire 1 = _005_ $end
$var wire 1 > _006_ $end
$var wire 1 ? _007_ $end
$var wire 1 @ _008_ $end
$var wire 1 A _009_ $end
$var wire 1 B _010_ $end
$var wire 1 C _011_ $end
$var wire 1 D _012_ $end
$var wire 1 E _013_ $end
$var wire 1 F _014_ $end
$var wire 1 G _015_ $end
$var wire 1 H _016_ $end
$var wire 1 I _017_ $end
$var wire 1 J _018_ $end
$var wire 1 K _019_ $end
$var wire 1 L _020_ $end
$var wire 1 M _021_ $end
$var wire 1 N _022_ $end
$var wire 1 O _023_ $end
$var wire 1 P _024_ $end
$var wire 1 Q _025_ $end
$var wire 1 R _026_ $end
$var wire 1 S _027_ $end
$var wire 1 T _028_ $end
$var wire 1 U _029_ $end
$var wire 1 V _030_ $end
$var wire 1 W _031_ $end
$var wire 1 X _032_ $end
$var wire 1 Y _033_ $end
$var wire 1 Z _034_ $end
$var wire 1 [ _035_ $end
$var wire 1 \ _036_ $end
$var wire 1 ] _037_ $end
$var wire 1 ^ _038_ $end
$var wire 1 _ _039_ $end
$var wire 1 ` _040_ $end
$var wire 1 a _041_ $end
$var wire 1 b _042_ $end
$var wire 1 c _043_ $end
$var wire 1 d _044_ $end
$var wire 1 e _045_ $end
$var wire 1 f _046_ $end
$var wire 1 g _047_ $end
$var wire 1 h _048_ $end
$var wire 1 i _049_ $end
$var wire 1 j _050_ $end
$var wire 1 k _051_ $end
$var wire 1 l _052_ $end
$var wire 1 m _053_ $end
$var wire 1 n _054_ $end
$var wire 1 o _055_ $end
$var wire 1 p _056_ $end
$var wire 1 q _057_ $end
$var wire 1 r _058_ $end
$var wire 1 s _059_ $end
$var wire 1 t _060_ $end
$var wire 1 u _061_ $end
$var wire 1 v _062_ $end
$var wire 1 w _063_ $end
$var wire 1 x _064_ $end
$var wire 1 y _065_ $end
$var wire 1 z _066_ $end
$var wire 1 { _067_ $end
$var wire 1 | _068_ $end
$var wire 1 } _069_ $end
$var wire 1 ~ _070_ $end
$var wire 1 !" _071_ $end
$var wire 1 "" _072_ $end
$var wire 1 #" _073_ $end
$var wire 1 $" _074_ $end
$var wire 1 %" _075_ $end
$var wire 1 &" _076_ $end
$var wire 1 '" _077_ $end
$var wire 1 (" _078_ $end
$var wire 1 )" _079_ $end
$var wire 1 *" _080_ $end
$var wire 1 +" _081_ $end
$var wire 1 ," _082_ $end
$var wire 1 -" _083_ $end
$var wire 1 ." _084_ $end
$var wire 1 /" _085_ $end
$var wire 1 0" _086_ $end
$var wire 1 1" _087_ $end
$var wire 1 2" _088_ $end
$var wire 1 3" _089_ $end
$var wire 1 4" _090_ $end
$var wire 1 5" _091_ $end
$var wire 1 6" _092_ $end
$var wire 1 7" _094_ $end
$var wire 1 8" _095_ $end
$var wire 1 9" _096_ $end
$var wire 1 :" _097_ $end
$var wire 1 ;" _098_ $end
$var wire 1 <" _099_ $end
$var wire 1 =" _100_ $end
$var wire 1 >" _101_ $end
$var wire 1 ?" _102_ $end
$var wire 1 @" _103_ $end
$var wire 1 A" _104_ $end
$var wire 1 B" _105_ $end
$var wire 1 C" _106_ $end
$var wire 1 D" _107_ $end
$var wire 1 E" _108_ $end
$var wire 1 F" _109_ $end
$var wire 1 G" _110_ $end
$var wire 1 H" _111_ $end
$var wire 1 I" _112_ $end
$var wire 1 J" _113_ $end
$var wire 1 K" _114_ $end
$var wire 1 L" _115_ $end
$var wire 1 M" _116_ $end
$var wire 1 N" _117_ $end
$var wire 1 O" _118_ $end
$var wire 1 P" _119_ $end
$var wire 1 Q" _120_ $end
$var wire 1 R" _121_ $end
$var wire 1 S" _122_ $end
$var wire 1 T" _123_ $end
$var wire 1 U" _124_ $end
$var wire 1 V" _125_ $end
$var wire 1 W" _127_ $end
$var wire 1 X" _128_ $end
$var wire 1 Y" _129_ $end
$var wire 1 Z" _130_ $end
$var wire 1 [" _131_ $end
$var wire 1 \" _133_ $end
$var wire 1 ]" _134_ $end
$var wire 1 ^" _135_ $end
$var wire 1 _" _137_ $end
$var wire 1 `" _138_ $end
$var wire 1 a" _139_ $end
$var wire 1 b" _140_ $end
$var wire 1 c" _141_ $end
$var wire 1 d" _143_ $end
$var wire 1 e" _144_ $end
$var wire 1 f" _145_ $end
$var wire 1 g" _146_ $end
$var wire 1 h" _148_ $end
$var wire 1 i" _149_ $end
$var wire 1 j" _150_ $end
$var wire 1 k" _151_ $end
$var wire 1 l" _153_ $end
$var wire 1 m" _154_ $end
$var wire 1 n" _155_ $end
$var wire 1 o" _156_ $end
$var wire 1 p" _158_ $end
$var wire 1 q" _159_ $end
$var wire 1 r" _160_ $end
$var wire 1 s" _161_ $end
$var wire 1 t" _162_ $end
$var wire 1 u" _163_ $end
$var wire 1 v" _164_ $end
$var wire 1 w" _165_ $end
$var wire 1 x" _166_ $end
$var wire 1 y" _167_ $end
$var wire 1 z" _168_ $end
$var wire 1 {" _169_ $end
$var wire 1 |" _170_ $end
$var wire 1 }" _171_ $end
$var wire 1 ~" _172_ $end
$var wire 1 !# _173_ $end
$var wire 1 "# _174_ $end
$var wire 1 ## _175_ $end
$var wire 4 $# i_arg_A [3:0] $end
$var wire 4 %# i_arg_B [3:0] $end
$var wire 1 ' i_clk $end
$var wire 2 &# i_op [1:0] $end
$var wire 1 ) i_reset $end
$var wire 5 '# overflow_check [4:0] $end
$var wire 4 (# temp_status [3:0] $end
$var wire 4 )# temp_result [3:0] $end
$var wire 4 *# o_status [3:0] $end
$var wire 1 +# _157_ $end
$var wire 1 ,# _152_ $end
$var wire 1 -# _147_ $end
$var wire 1 .# _142_ $end
$var wire 1 /# _136_ $end
$var wire 1 0# _132_ $end
$var wire 1 1# _126_ $end
$var wire 1 2# _093_ $end
$var reg 4 3# o_result [3:0] $end
$var reg 1 4# \o_status_reg[0] $end
$var reg 1 5# \o_status_reg[1] $end
$var reg 1 6# \o_status_reg[2] $end
$upscope $end
$upscope $end
$enddefinitions $end
#0
$dumpvars
x6#
x5#
x4#
bx 3#
02#
11#
00#
1/#
0.#
1-#
0,#
0+#
bx *#
b1111 )#
b110 (#
b0 '#
b0 &#
b10 %#
b11 $#
1##
0"#
0!#
1~"
1}"
0|"
0{"
1z"
0y"
1x"
0w"
0v"
0u"
1t"
1s"
0r"
0q"
0p"
1o"
0n"
0m"
0l"
1k"
0j"
1i"
0h"
0g"
0f"
1e"
0d"
1c"
0b"
0a"
1`"
1_"
0^"
0]"
0\"
1["
0Z"
0Y"
0X"
0W"
1V"
0U"
1T"
1S"
0R"
0Q"
0P"
1O"
0N"
0M"
1L"
0K"
1J"
1I"
0H"
0G"
1F"
1E"
0D"
0C"
0B"
0A"
1@"
0?"
0>"
1="
0<"
1;"
0:"
09"
08"
17"
06"
15"
14"
13"
12"
11"
00"
0/"
1."
0-"
1,"
0+"
0*"
1)"
1("
0'"
1&"
1%"
0$"
1#"
0""
1!"
0~
0}
1|
0{
1z
1y
1x
0w
1v
1u
1t
0s
1r
1q
1p
0o
1n
0m
1l
0k
1j
0i
1h
1g
1f
0e
1d
1c
1b
1a
1`
0_
1^
0]
1\
0[
1Z
0Y
0X
1W
1V
1U
1T
0S
1R
0Q
1P
1O
1N
1M
1L
0K
1J
1I
1H
0G
0F
1E
0D
0C
0B
1A
0@
1?
0>
1=
1<
1;
0:
09
18
b110 7
b1111 6
b100 5
b1111 4
b100 3
b11 2
b0 1
bx 0
bx /
b0 .
b0 -
b0 ,
b10 +
b11 *
1)
b0 (
0'
b10 &
b11 %
bx $
bx #
bx "
bx !
$end
#1
b110 #
b110 0
b1111 $
b1111 /
b1111 "
b1111 3#
04#
15#
b110 !
b110 *#
16#
1'
#2
0v"
02#
0k
1U
1T
0S
1R
0F
13"
b100 (#
1&"
0,"
1H
0/"
00"
1r"
1b"
1E
0t"
0}
15"
0|
b1001 )#
0s"
1q"
1m"
0G
1]"
1p"
1+"
1."
14"
11"
1d"
0#"
1l"
0D
1,#
1s
1R"
1Z"
1{
0!"
0T"
1.#
0p
1C"
0i"
1W"
07"
0<
0J
0M
1e
1~
0("
0S"
1\"
1o
0y
0`"
0u
1J"
0I
0L
0r
0v
0;"
0F"
1M"
1Q"
0N
1?"
0E"
1""
0@"
1'"
1<"
1G"
1P"
0/#
0e"
1g"
1-#
b110 3
b1111 2
b1001 4
b110 5
b1001 6
b100 7
b11 &
b11 +
b11 %#
b1111 %
b1111 *
b1111 $#
0'
#3
b100 !
b100 *#
05#
b1001 "
b1001 3#
b100 #
b100 0
b1001 $
b1001 /
1'
#4
12#
1k
0U
0T
1S
0R
b1001 (#
1r"
0t"
1q"
1v"
1Q
1+#
0f
1p"
1u"
0%"
01"
0b"
1K
0,#
b111 )#
1s"
1$"
1K"
1J
1M
0e
0d"
1#"
1I
1L
0.#
0W"
1U"
0\"
1w
0x
1/#
1N
1^"
b1101 2
b0 4
b110 5
bx 6
b1001 7
b1101 %
b1101 *
b1101 $#
0'
#5
b1001 #
b1001 0
bx $
bx /
b111 "
b111 3#
14#
b1001 !
b1001 *#
06#
1'
#6
0v"
b100 (#
02#
0k
1i
1_
1]
0T
1!#
1[
1Y
1S
0z"
0~"
0A
0##
1"#
0h
13"
1w"
1y"
19
1F
0^
0b
0R
0g
0&"
0x"
1|"
0}"
0;
1C
0H
0\
0a
0d
0t"
1n"
0/"
10"
1T"
1%"
1b"
1{"
1B
08
0E
0`
0c
0?
0Z
1j
1p"
1}
15"
11"
0j"
1S"
0N"
0z
0$"
0u"
1:
1@
1G
1U
0=
1D
1Q
1+#
0f
0<
0J
0."
04"
1V"
0{
0!"
0+"
1("
1*"
01#
0K"
0#"
b110 )#
0s"
1>
1K
0s
0R"
1Z"
1~
0O"
0Q"
1L"
1d"
1u
0""
1-"
0t
1v
0'"
0)"
1H"
0m"
1y
10#
1@"
0U"
1r
1>"
1F"
0G"
0_"
1`"
0l"
18"
0<"
1I"
b110 4
b1000 3
b1110 2
b1000 5
b110 6
b100 7
b1100 &
b1100 +
b1100 %#
b1110 %
b1110 *
b1110 $#
0'
#7
16#
b100 !
b100 *#
04#
b110 "
b110 3#
b100 #
b100 0
b110 $
b110 /
1'
#8
1T
1##
0!#
0S
0|"
0"#
0C
1z"
1~"
1A
1R
1x"
1}"
1;
1H
0_
0w"
0y"
09
0F
0{"
0B
1^
1b
0]
0@
1\
1a
02#
18
1E
0[
1`
1?
1Z
0k
0:
0G
1U
0Y
1=
1d
0>
1c
1j
1<
0i
1&"
0D
1j"
b0 (#
1N"
1h
1!"
12"
0}
0n"
0]"
1g
00"
0~
0%"
11"
0b"
1,"
1v"
0L"
0V"
14"
0M
0Q
0+#
1f
1z
1$"
1u"
0T"
1Z"
1,#
1m"
17"
0K
1."
1#"
0*"
b1011 )#
1s"
1e
1l"
1J
0s
0Y"
1|
1O"
0d"
1K"
0L
1("
1t
0y
1)"
00#
01#
1U"
0>"
1_"
0`"
0-"
1q
08"
1;"
0H"
0P"
0/#
1e"
0g"
1-#
b110 3
b1 2
b1011 4
b110 5
b1011 6
b0 7
b11 &
b11 +
b11 %#
b1 %
b1 *
b1 $#
0'
#9
b0 #
b0 0
b1011 $
b1011 /
b1011 "
b1011 3#
b0 !
b0 *#
06#
1'
#10
1!#
1i
0z"
0~"
0A
1_
0T
0##
1"#
1]
0h
02#
1w"
1y"
19
1[
0^
0b
0g
0k
0x"
1|"
0}"
0;
1C
1Y
0\
0a
0d
1F
1S
1{"
1B
08
0`
0c
0?
0Z
1j
1&"
0Z"
1:
1@
1U
0=
0H
0n"
1>
0E
0R
0}
15"
b100 (#
0<
1G
0X
1t"
14"
11#
1D
1|
1%"
1b"
0v"
0N"
1V"
1W
0m"
1M
1Q
1+#
0f
0j"
0z
0$"
0u"
1R"
1]"
1V
0l"
1K
0{
1!"
0#"
b0 )#
1s"
1L"
1P
1.#
1i"
0J
0~
1d"
0S"
0O
1\"
1`"
0J"
0I
0v
1y
10#
0F"
0-#
1f"
0U"
0N
0?"
0@"
18"
0;"
1G"
1I"
0^"
0e"
0g"
b100 7
b100 3
b100 2
b0 4
b100 5
b0 6
b10 &
b10 +
b10 %#
b100 %
b100 *
b100 $#
0'
#11
b100 !
b100 *#
16#
b0 "
b0 3#
b100 #
b100 0
b0 $
b0 /
1'
#12
0T
1!#
1S
13"
1"#
0z"
0~"
0A
0R
0/"
0i
0x"
0}"
0;
12#
0t"
1h
0,"
b1001 (#
1_
1w"
1y"
19
1F
1{"
1B
0^
0b
1k
1g
1&"
1]
1@
0\
0a
0d
0M
0Q
0+#
1f
1*"
0n"
1v"
1<
08
0E
1[
0`
0c
0?
0Z
0j
0K
1."
0}
15"
0K"
1N"
0V"
1u"
1:
1G
1U
1Y
0=
1D
0]"
0d"
1s
1Y"
14"
0!"
0M"
0R"
0j"
b1011 )#
1s"
1>
0J
0.#
0("
0|
1~
1W"
1L"
1g"
0u
1-"
1J"
1I
0\"
0q
0t
1v
1x
1Q"
0y
00#
0f"
1@"
1U"
1N
1>"
1?"
1F"
0G"
1P"
0_"
0i"
1O
08"
1;"
1^"
bx 6
b1010 3
b101 2
b1010 5
b1001 7
b1101 &
b1101 +
b1101 %#
b101 %
b101 *
b101 $#
0'
#13
b1001 #
b1001 0
bx $
bx /
b1011 "
b1011 3#
14#
b1001 !
b1001 *#
06#
1'
#14
13"
12"
0&"
1,"
1n"
0/"
00"
1Z"
0L"
1}
05"
0*"
01"
0b"
1."
04"
0u"
0s
0Y"
1S"
1#"
b1010 )#
0s"
1N"
1K"
1("
1a"
1p
0C"
1d"
0W"
0g"
1q
0Q"
01#
0o
1y
10#
1f"
0P"
0`"
18"
0;"
1E"
0I"
0^"
b100 2
b1010 5
bx 6
b1001 7
b101 &
b101 +
b101 %#
b100 %
b100 *
b100 $#
0'
#15
b1010 "
b1010 3#
1'
#16
1u"
1&"
0%"
1n"
1{
1$"
1}
05"
01"
0j"
1z
0s"
b1 )#
1t"
00#
04"
0!"
1v"
b0 (#
0["
0p
1C"
0|
1~
0S"
0K"
02#
1.#
1+#
0I
0U"
1\"
1o
1t
0v
0x
0y
1M"
1-#
0f"
0l
0-"
0@"
0N
08"
1;"
0E"
1G"
1H"
1I"
1/#
1e"
0g"
19"
b0 5
b1 6
b0 7
b11 %
b11 *
b11 $#
0'
b1 (
b1 ,
b1 &#
#17
b0 #
b0 0
b1 $
b1 /
b1 "
b1 3#
b0 !
b0 *#
04#
1'
#18
b100 (#
0v"
0u"
b0 )#
1s"
10#
1["
0Z"
0&"
1%"
1b"
0N"
11#
0z
0$"
11"
0j"
1V"
0#"
0a"
0{
0!"
1L"
1T"
1p
0C"
1A"
1M
0e
1~
1S"
0\"
0o
1y
1`"
1I
1L
0t
1v
0-#
1N
0?"
1E"
1-"
1@"
0G"
0e"
1g"
b100 7
b0 6
b100 &
b100 +
b100 %#
b111 %
b111 *
b111 $#
0'
#19
b100 !
b100 *#
16#
b0 "
b0 3#
b100 #
b100 0
b0 $
b0 /
1'
#20
1k
0T
1##
b0 (#
0!#
1S
0|"
0"#
0C
1v"
1H
1z"
1~"
1A
0R
1u"
1E
1x"
1}"
1;
b1 )#
0s"
0G
0_
0w"
0y"
09
0F
0{"
0B
1^
1b
0D
0]
0@
1\
1a
1d
1h
00#
18
0[
1`
1c
1?
1Z
1j
1g
0n"
10"
15"
0["
1]"
0:
0U
0Y
1=
1Q
0f
0>
1K
1j"
1m"
0."
07"
0<
1J
1!"
1+"
0T"
1l"
1s
1R"
1Z"
1|
0~
0C"
0S"
0("
1K"
0g"
1""
0-"
1t
0v
0A"
0B"
0I"
0`"
0r
1Q"
1f"
0@"
1U"
0>"
1?"
0F"
1G"
1_"
0i"
1'"
18"
0;"
0H"
1P"
0/#
0-#
b1 6
b0 7
b11 &
b11 +
b11 %#
b1100 %
b1100 *
b1100 $#
0'
#21
b0 #
b0 0
b1 $
b1 /
b1 "
b1 3#
b0 !
b0 *#
06#
1'
#22
0k
1i
b100 (#
1_
1]
0T
1!#
0v"
1[
0u"
1Y
1S
0z"
0~"
0A
b0 )#
1s"
0##
1"#
0h
1w"
1y"
19
1F
0^
0b
0R
0g
10#
1T"
1Y"
0x"
1|"
0}"
0;
1C
0H
0\
0a
0d
10"
15"
1["
0,"
1X"
1{"
1B
08
0E
0`
0c
0?
0Z
1j
0j"
0K"
1S"
1N"
1:
1@
1G
1U
0=
1D
1M
1Q
0f
0<
0J
0."
1V"
0!"
0+"
0M"
1("
1*"
11#
1n"
1-#
1>
1K
1e
0s
0R"
0Z"
0|
1~
1O"
0Q"
1L"
0p
1C"
1W"
1g"
1u
0""
1-"
0L
0t
1v
1x
0'"
0)"
0m"
1o
0y
1/#
0f"
1@"
1r
1>"
1F"
0G"
0_"
1`"
0l"
08"
1<"
0E"
1I"
1^"
b100 7
b0 6
b1101 &
b1101 +
b1101 %#
b1101 %
b1101 *
b1101 $#
0'
#23
b100 !
b100 *#
16#
b0 "
b0 3#
b100 #
b100 0
b0 $
b0 /
1'
#24
1T
1##
0!#
0S
0|"
0"#
0C
1z"
1~"
1A
1R
1x"
1}"
1;
1H
0_
0w"
0y"
09
0F
0{"
0B
1^
1b
0]
0@
1\
1a
18
1E
0[
1`
1?
1Z
0k
0:
0G
1U
0Y
1=
1d
0>
1c
1j
1<
0i
0D
1h
0]"
1g
0V"
0Q
1f
10"
15"
1,"
17"
0K
1j"
1J
1!"
0R"
0T"
1+"
0."
0*"
0N"
0X"
1K"
0e
1|
0~
0S"
1p
0C"
1s
1Q"
0W"
0g"
0-"
0J"
1L
1t
0v
0x
1M"
0o
0("
1y
1)"
1f"
0@"
0>"
0F"
1G"
1_"
0q
18"
0<"
1E"
0I"
0^"
0/#
0-#
b100 7
b1011 &
b1011 +
b1011 %#
b100 %
b100 *
b100 $#
0'
#25
1'
#26
b0 (#
1v"
1u"
0T
b1 )#
0s"
1!#
1S
00#
1i
0["
0z"
0~"
0A
1_
0##
1"#
1]
0h
1&"
1w"
1y"
19
1F
1[
0^
0b
0g
0k
0R
0n"
00"
1Z"
0x"
1|"
0}"
0;
1C
0H
1Y
0\
0a
0d
0}
0b"
1{"
1B
08
0E
0`
0c
0?
0Z
1j
0+"
1."
14"
1N"
1J"
1:
1@
1G
1U
0=
1D
1Q
0f
0s
0Y"
1#"
1>
1K
1("
0L"
0u
1q
1x
1a"
0Q"
01#
1-#
1>"
1F"
0P"
0_"
0`"
1e"
1g"
b1 6
b0 7
b101 &
b101 +
b101 %#
b0 %
b0 *
b0 $#
0'
#27
b0 !
b0 *#
06#
b1 "
b1 3#
b0 #
b0 0
b1 $
b1 /
1'
#28
b100 (#
1T
1##
0v"
0!#
0S
0u"
0|"
0"#
0C
1z"
1~"
1A
1R
1Z"
1x"
1}"
1;
1H
0i
1N"
0_
0w"
0y"
09
0F
0{"
0B
1^
1b
0k
0t"
b101 )#
0s"
0]
0@
1\
1a
1d
1h
01#
0L"
18
1E
0[
1`
1c
1?
1Z
1j
1g
11"
1j"
0V"
1D"
0,#
00#
0:
0G
1U
0Y
1=
0D
0Q
1f
1!"
0T"
1z
0k"
0["
0>
0K
0~
1S"
1K"
0g"
1u
1v
0a"
0M"
1m"
0U"
0O
1\"
0w
0f"
0n
1@"
0>"
0G"
1_"
1l"
0N
0H"
1^"
1/#
1m
09"
b100 7
b101 4
b11 3
b10 2
b101 6
b11 &
b11 +
b11 %#
b10 %
b10 *
b10 $#
0'
b10 (
b10 ,
b10 &#
#29
b100 #
b100 0
b101 $
b101 /
b101 "
b101 3#
b100 !
b100 *#
16#
1'
#30
1!#
b0 (#
1i
0z"
0~"
0A
1_
1v"
0##
1"#
1]
0h
0T
1u"
1w"
1y"
19
1[
0^
0b
0g
0k
b1 )#
1t"
0x"
1|"
0}"
0;
1C
1Y
0\
0a
0d
1F
1{"
1B
08
0`
0c
0?
0Z
1j
1S
1,#
0Z"
1:
1@
1U
0=
0H
1k"
1>
0E
0N"
0<
1G
0R
0X
11#
1D
0j"
1L"
1V"
1W
0!"
1T"
1]"
1Q
0f
1V
1~
1K
1P
0z
0#"
1M"
0K"
0J
1M
1e
0J"
0I
0L
1w
0x
1a"
1H"
0m"
0@"
1>"
0l"
b1 3
b1 4
b1 6
b0 7
b1 &
b1 +
b1 %#
0'
#31
b0 !
b0 *#
06#
b1 "
b1 3#
b0 #
b0 0
b1 $
b1 /
1'
#32
0v"
0u"
1T
1##
0p"
0!#
0S
1s"
0+#
b100 (#
b1100 )#
1t"
0|"
0"#
0C
0o"
02#
1z"
1~"
1A
1R
10#
13"
06"
0,#
1x"
1}"
1;
1H
0i
1["
0&"
0k"
0_
0w"
0y"
09
0F
0{"
0B
1^
1b
0k
1n"
0/"
10"
0]
0@
1\
1a
1d
1h
0D"
1}
15"
18
1E
0[
1`
1c
1?
1Z
1j
1g
1+"
0."
04"
1j"
0:
0G
1U
0Y
1=
0D
0M
0Q
1f
1s
1R"
1Z"
1!"
0T"
0>
0K
07"
0p
1C"
0~
0("
1W"
0S"
0K"
0u
1J"
1I
1U"
0\"
1o
0r
0v
1x
0y
0F"
1Q"
1""
1-"
1@"
1N
1O
1'"
08"
1<"
0E"
1G"
0H"
1I"
1P"
0e"
1g"
1-#
b100 7
b1101 2
b1100 4
b1100 6
b1101 %
b1101 *
b1101 $#
0'
#33
b100 #
b100 0
b1100 $
b1100 /
b1100 "
b1100 3#
b100 !
b100 *#
16#
1'
#34
1i
1_
1]
0h
b1001 (#
1[
0g
12#
1v"
1Y
0d
1!#
16"
1u"
0c
0T
0z"
0~"
0A
0##
1"#
0s"
13"
05"
1,#
b1 )#
1t"
1w"
1y"
19
0^
0b
0k
1S
1k"
1p"
0x"
1|"
0}"
0;
1C
0\
0a
1F
00#
0/"
1+#
1{"
1B
08
0`
0?
0Z
1j
0["
0&"
12"
1o"
1:
1@
1U
0=
0H
0R
0X
00"
0|
01"
0j"
1,"
1>
0E
1D"
1}
0!"
1G
1]"
1W
0+"
1."
04"
1{
1~
1K"
0n"
0J"
1D
1M
1Q
0f
1V
0s
0Z"
1z
1#"
1K
17"
0<
1P
1p
0C"
1("
0W"
0-"
0I
0a"
1m"
1u
0U"
0O
1\"
0o
1r
0w
1y
0Q"
0@"
0>"
1l"
0""
0N
0'"
18"
0<"
1E"
0H"
0I"
0P"
0-#
b11 3
b110 2
b0 4
bx 6
b1001 7
b11 &
b11 +
b11 %#
b110 %
b110 *
b110 $#
0'
#35
06#
b1001 !
b1001 *#
14#
b1 "
b1 3#
b1001 #
b1001 0
bx $
bx /
1'
#36
0T
0v"
1!#
1S
0z"
0~"
0A
0R
b100 (#
1_
1w"
1y"
19
1F
0^
0b
02#
1]
0\
0a
0k
06"
1p"
08
1[
0`
0?
0Z
1&"
0,#
0u"
1:
1U
1Y
0=
0d
1j
0k"
0.#
10#
b110 )#
0t"
1>
0c
1i
0}
15"
0c"
1["
0<
14"
1+#
1D
0h
1|
1j"
0D"
1o"
0g
1!"
11"
1b"
07"
1]"
1Q
0f
0{
0~
1K
0z
0#"
1C"
0n"
0K"
0J
0e
1B"
1-"
1J"
1I
1L
0\"
1w
0x
1A"
0a"
1H"
1`"
0m"
1@"
1N
1>"
0?"
0l"
1O
08"
1;"
1I"
0^"
b110 4
b0 3
b111 2
b110 6
b100 7
b0 &
b0 +
b0 %#
b111 %
b111 *
b111 $#
0'
#37
b100 #
b100 0
b110 $
b110 /
b110 "
b110 3#
04#
b100 !
b100 *#
16#
1'
#38
1s"
b11 )#
1t"
0d"
00#
1,#
0["
1k"
0j"
0R"
1D"
17"
0!"
1T"
1e
1~
1S"
1n
0="
0J"
0I
0L
1v
1F"
1-#
0m
0h"
0-"
0@"
0G"
1e"
0g"
1:"
b0 4
b11 6
b100 7
b11 %
b11 *
b11 $#
0'
b11 (
b11 ,
b11 &#
#39
b11 "
b11 3#
b11 $
b11 /
1'
#40
0T
1!#
1S
0z"
0~"
0A
0R
1i
1_
1w"
1y"
19
1F
0^
0b
0k
b0 (#
1]
0\
0a
0h
08
1[
0`
0?
0Z
1j
0g
1v"
1:
1U
1Y
0=
0d
1u"
1>
0c
0Z"
b111 )#
0t"
0<
1D
0,#
11#
0k"
1]"
1j"
1R"
1V"
07"
1!"
0T"
1h"
0e
0~
0S"
1J"
1I
1L
0v
0F"
0-#
1-"
1@"
1G"
0e"
1g"
b111 6
b0 7
b111 %
b111 *
b111 $#
0'
#41
b0 #
b0 0
b111 $
b111 /
b111 "
b111 3#
b0 !
b0 *#
06#
1'
#42
b100 (#
10#
0v"
1t"
1["
0u"
1T"
1N"
11#
b0 )#
1s"
1,#
0%"
0b"
0D"
1V"
1L"
1d"
1k"
01"
0j"
1$"
0R"
1Y"
1.#
17"
0!"
1#"
0M"
1="
1X"
1c"
0h"
1e
0p
1~
1W"
1S"
0K"
0J"
0I
0L
0O
1\"
1o
1v
1x
1F"
1-#
1f"
0-"
0@"
0N
18"
0;"
0E"
0G"
0H"
0/#
1e"
1g"
b100 7
b0 6
b0 %
b0 *
b0 $#
0'
#43
b100 !
b100 *#
16#
b0 "
b0 3#
b100 #
b100 0
b0 $
b0 /
1'
#44
1T
1##
0!#
0S
0s"
0|"
0"#
0C
0p"
b0 (#
1z"
1~"
1A
1R
13"
00#
0,#
1x"
1}"
1;
1H
0i
0&"
0["
0k"
1v"
0_
0w"
0y"
09
0F
0{"
0B
1^
1b
0k
1n"
0/"
10"
1u"
0]
0@
1\
1a
1d
1h
1}
15"
1%"
11"
1b"
1D"
1h"
b1101 )#
1t"
18
1E
0[
1`
1c
1?
1Z
1j
1g
0."
04"
0$"
0Y"
0T"
1J"
0:
0G
1U
0Y
1=
0D
0M
0Q
1f
1s
1R"
1Z"
0#"
1M"
0="
0N"
0X"
0S"
0-#
0+#
0>
0K
07"
1p
0("
0W"
0g"
0o"
0u
0\"
0o
0r
0x
1Q"
0f"
1""
1N
1O
1'"
08"
1<"
1E"
1H"
1P"
b1101 6
b0 7
b1011 %
b1011 *
b1011 $#
0'
#45
b0 #
b0 0
b1101 $
b1101 /
b1101 "
b1101 3#
b0 !
b0 *#
06#
1'
#46
b110 (#
0v"
0u"
0r"
0N"
b1111 )#
1s"
0q"
02"
0d"
01"
0b"
1L"
0.#
0c"
1#"
0M"
0K"
1\"
1x
1/#
0N
0H"
1^"
b110 7
b1111 6
b1001 %
b1001 *
b1001 $#
0'
#47
16#
b110 !
b110 *#
15#
b1111 "
b1111 3#
b110 #
b110 0
b1111 $
b1111 /
1'
#48
0U
0T
b0 (#
0t"
1S
1/"
1v"
1p"
1&"
10#
1u"
1r"
1,#
1["
b1000 )#
1s"
1q"
1k"
0R
1d"
1X
0%"
0D"
1.#
0h"
1$"
1c"
1Q
0W
1="
1N"
1-#
0V
0p
1W"
1g"
0P
1o
0/#
1f"
0O
18"
0<"
0E"
0^"
b1000 6
b1001 7
b1000 %
b1000 *
b1000 $#
0'
#49
b1001 #
b1001 0
b1000 $
b1000 /
b1000 "
b1000 3#
05#
b0 !
b0 *#
06#
1'
